id,name,description,from,to
1,Pac Presentations,Ergebnisse des PAC werden in zwei aufeinanderfolgenden Tagen präsentiert und diskutiert.,15.06.2019,18.06.2019
2,KubeCon,Kubernetes conference,25.06.2019,28.06.2019
3,Graph Tech Forum,YACG - Yet another conference about Graphs,03.07.2019,05.07.2019
