talkId,timeslotId
1,1
2,2
3,3
4,4
5,5
6,6
7,7
8,8
9,9
1,10
2,11
3,12
4,13
5,14
1,15
2,16
3,17
4,18
5,19
10,20
11,21
12,22
13,23
14,24
11,25
1,26
2,27
3,28
6,29
7,30
8,31
9,32
10,33
11,34
12,35
13,36
14,37
6,38
7,39
8,40
9,41
10,42
11,43
12,44
13,45
14,46
6,47
7,48
